{
	"info": {
		"_postman_id": "90521b92-d606-483f-90c1-e875a0d18446",
		"name": "Crud Habitación",
		"description": "Crud Habitación",
		"schema": "https://schema.getpostman.com/json/collection/v2.1.0/collection.json"
	},
	"item": [
		{
			"name": "Guardar",
			"request": {
				"method": "POST",
				"header": [],
				"body": {
					"mode": "raw",
					"raw": "    {\r\n        \"estado\": {\r\n            \"idEstado\": 1\r\n        },\r\n        \"numero\": 108,\r\n        \"estadoLogico\": 1,\r\n        \"tipo\": {\r\n            \"idTipo\": 1\r\n        }\r\n    }",
					"options": {
						"raw": {
							"language": "json"
						}
					}
				},
				"url": {
					"raw": "http://localhost:8085/habitacion/save",
					"protocol": "http",
					"host": [
						"localhost"
					],
					"port": "8085",
					"path": [
						"habitacion",
						"save"
					]
				}
			},
			"response": []
		},
		{
			"name": "busarxnumero",
			"protocolProfileBehavior": {
				"disableBodyPruning": true
			},
			"request": {
				"method": "GET",
				"header": [],
				"body": {
					"mode": "raw",
					"raw": "    {\r\n        \"estado\": {\r\n            \"idEstado\": 1\r\n        },\r\n        \"numero\": 108,\r\n        \"estadoLogico\": 1,\r\n        \"tipo\": {\r\n            \"idTipo\": 1\r\n        }\r\n    }",
					"options": {
						"raw": {
							"language": "json"
						}
					}
				},
				"url": {
					"raw": "http://localhost:8085/habitacion/findxnumero/108",
					"protocol": "http",
					"host": [
						"localhost"
					],
					"port": "8085",
					"path": [
						"habitacion",
						"findxnumero",
						"108"
					]
				}
			},
			"response": []
		},
		{
			"name": "Listar",
			"protocolProfileBehavior": {
				"disableBodyPruning": true
			},
			"request": {
				"method": "GET",
				"header": [],
				"body": {
					"mode": "raw",
					"raw": "    {\r\n        \"estado\": {\r\n            \"idEstado\": 1\r\n        },\r\n        \"numero\": 108,\r\n        \"estadoLogico\": 1,\r\n        \"tipo\": {\r\n            \"idTipo\": 1\r\n        }\r\n    }",
					"options": {
						"raw": {
							"language": "json"
						}
					}
				},
				"url": {
					"raw": "http://localhost:8085/habitacion/listar",
					"protocol": "http",
					"host": [
						"localhost"
					],
					"port": "8085",
					"path": [
						"habitacion",
						"listar"
					]
				}
			},
			"response": []
		},
		{
			"name": "Update",
			"request": {
				"method": "PUT",
				"header": [],
				"body": {
					"mode": "raw",
					"raw": "{\r\n        \"idHabitacion\": 2,\r\n        \"estado\": {\r\n            \"idEstado\": 3\r\n    \r\n        },\r\n        \"numero\": 102,\r\n        \"estadoLogico\": 1,\r\n        \"tipo\": {\r\n            \"idTipo\": 1\r\n            \r\n        }\r\n    }",
					"options": {
						"raw": {
							"language": "json"
						}
					}
				},
				"url": {
					"raw": "http://localhost:8085/habitacion/update",
					"protocol": "http",
					"host": [
						"localhost"
					],
					"port": "8085",
					"path": [
						"habitacion",
						"update"
					]
				}
			},
			"response": []
		},
		{
			"name": "Eliminar",
			"request": {
				"method": "POST",
				"header": [],
				"body": {
					"mode": "raw",
					"raw": "{\r\n        \"idHabitacion\": 2,\r\n        \"estado\": {\r\n            \"idEstado\": 3\r\n    \r\n        },\r\n        \"numero\": 102,\r\n        \"estadoLogico\": 1,\r\n        \"tipo\": {\r\n            \"idTipo\": 1\r\n            \r\n        }\r\n    }",
					"options": {
						"raw": {
							"language": "json"
						}
					}
				},
				"url": {
					"raw": "http://localhost:8085/habitacion/delete",
					"protocol": "http",
					"host": [
						"localhost"
					],
					"port": "8085",
					"path": [
						"habitacion",
						"delete"
					]
				}
			},
			"response": []
		}
	],
	"protocolProfileBehavior": {}
}